Project 1: Data combination and summarization through functions
…
Step 3: Converting to a long form

  #converting to a long form and moving the results to an "enrollment" column
edu_edit <- edu_edit |>
  pivot_longer(cols = 3:12, 
               values_to = "enrollment")
#printing to see the results
edu_edit

# A tibble: 31,980 × 4
   area_name     STCOU name       enrollment
   <chr>         <chr> <chr>           <dbl>
 1 UNITED STATES 00000 EDU010187D   40024299
 2 UNITED STATES 00000 EDU010188D   39967624
 3 UNITED STATES 00000 EDU010189D   40317775
 4 UNITED STATES 00000 EDU010190D   40737600
 5 UNITED STATES 00000 EDU010191D   41385442
 6 UNITED STATES 00000 EDU010192D   42088151
 7 UNITED STATES 00000 EDU010193D   42724710
 8 UNITED STATES 00000 EDU010194D   43369917
 9 UNITED STATES 00000 EDU010195D   43993459
10 UNITED STATES 00000 EDU010196D   44715737
# ℹ 31,970 more rows
…
#printing to see the results
edu_edit

# A tibble: 31,980 × 6
   area_name     STCOU name       enrollment  year measurement
   <chr>         <chr> <chr>           <dbl> <dbl> <chr>      
 1 UNITED STATES 00000 EDU010187D   40024299  1987 EDU0101    
 2 UNITED STATES 00000 EDU010188D   39967624  1988 EDU0101    
 3 UNITED STATES 00000 EDU010189D   40317775  1989 EDU0101    
 4 UNITED STATES 00000 EDU010190D   40737600  1990 EDU0101    
 5 UNITED STATES 00000 EDU010191D   41385442  1991 EDU0101    
 6 UNITED STATES 00000 EDU010192D   42088151  1992 EDU0101    
 7 UNITED STATES 00000 EDU010193D   42724710  1993 EDU0101    
 8 UNITED STATES 00000 EDU010194D   43369917  1994 EDU0101    
 9 UNITED STATES 00000 EDU010195D   43993459  1995 EDU0101    
10 UNITED STATES 00000 EDU010196D   44715737  1996 EDU0101    
# ℹ 31,970 more rows
…
#overwriting the county object to save edits 
edu_county <- edu_county |>
  #adding a new column to represent county's state
  mutate(state = str_extract(edu_county$area_name, " \\w\\w")) |>
  #adjusting columns to look better
  select(area_name, state, STCOU, name, measurement, year, everything())

#changing the class of the county data set
class(edu_county) <- c("county", class(edu_county))

#printing the data set
edu_county

# A tibble: 31,450 × 7
   area_name   state STCOU name       measurement  year enrollment
   <chr>       <chr> <chr> <chr>      <chr>       <dbl>      <dbl>
 1 Autauga, AL " AL" 01001 EDU010187D EDU0101      1987       6829
 2 Autauga, AL " AL" 01001 EDU010188D EDU0101      1988       6900
 3 Autauga, AL " AL" 01001 EDU010189D EDU0101      1989       6920
 4 Autauga, AL " AL" 01001 EDU010190D EDU0101      1990       6847
 5 Autauga, AL " AL" 01001 EDU010191D EDU0101      1991       7008
 6 Autauga, AL " AL" 01001 EDU010192D EDU0101      1992       7137
 7 Autauga, AL " AL" 01001 EDU010193D EDU0101      1993       7152
 8 Autauga, AL " AL" 01001 EDU010194D EDU0101      1994       7381
 9 Autauga, AL " AL" 01001 EDU010195D EDU0101      1995       7568
10 Autauga, AL " AL" 01001 EDU010196D EDU0101      1996       7834
# ℹ 31,440 more rows
…
    str_to_title(area_name) %in% c("Alaska", "California", "Hawaii", 
                                   "Oregon", "Washington") 
    ~ "Pacific",
    
    is.na(division) ~ "ERROR"
      )) |>
  #adjusting columns to look better
  select(area_name, division, STCOU, everything())

#printing the data set
edu_state

# A tibble: 530 × 7
   area_name     division STCOU name       enrollment  year measurement
   <chr>         <chr>    <chr> <chr>           <dbl> <dbl> <chr>      
 1 United States ERROR    00000 EDU010187D   40024299  1987 EDU0101    
 2 United States ERROR    00000 EDU010188D   39967624  1988 EDU0101    
 3 United States ERROR    00000 EDU010189D   40317775  1989 EDU0101    
 4 United States ERROR    00000 EDU010190D   40737600  1990 EDU0101    
 5 United States ERROR    00000 EDU010191D   41385442  1991 EDU0101    
 6 United States ERROR    00000 EDU010192D   42088151  1992 EDU0101    
 7 United States ERROR    00000 EDU010193D   42724710  1993 EDU0101    
 8 United States ERROR    00000 EDU010194D   43369917  1994 EDU0101    
 9 United States ERROR    00000 EDU010195D   43993459  1995 EDU0101    
10 United States ERROR    00000 EDU010196D   44715737  1996 EDU0101    
# ℹ 520 more rows
…
# returning the data 
  return(pivoted_data)
}

Testing the function

# the "value = " tells r what to label the column that is being pivoted
after_step_2 <- steps_1_and_2(data = edu_data_b, value = "enrollment")
after_step_2

# A tibble: 31,980 × 4
   area_name     STCOU name       enrollment
   <chr>         <chr> <chr>           <dbl>
 1 UNITED STATES 00000 EDU010197D   44534459
 2 UNITED STATES 00000 EDU010198D   46245814
 3 UNITED STATES 00000 EDU010199D   46368903
 4 UNITED STATES 00000 EDU010200D   46818690
 5 UNITED STATES 00000 EDU010201D   47127066
 6 UNITED STATES 00000 EDU010202D   47606570
 7 UNITED STATES 00000 EDU015203D   48506317
 8 UNITED STATES 00000 EDU015204D   48693287
 9 UNITED STATES 00000 EDU015205D   48978555
10 UNITED STATES 00000 EDU015206D   49140702
# ℹ 31,970 more rows
…
Testing function for step 3:

after_step_3 <- step_3(data = after_step_2)
after_step_3

# A tibble: 31,980 × 6
   area_name     STCOU name       enrollment  year measurement
   <chr>         <chr> <chr>           <dbl> <dbl> <chr>      
 1 UNITED STATES 00000 EDU010197D   44534459  1997 EDU0101    
 2 UNITED STATES 00000 EDU010198D   46245814  1998 EDU0101    
 3 UNITED STATES 00000 EDU010199D   46368903  1999 EDU0101    
 4 UNITED STATES 00000 EDU010200D   46818690  2000 EDU0102    
 5 UNITED STATES 00000 EDU010201D   47127066  2001 EDU0102    
 6 UNITED STATES 00000 EDU010202D   47606570  2002 EDU0102    
 7 UNITED STATES 00000 EDU015203D   48506317  2003 EDU0152    
 8 UNITED STATES 00000 EDU015204D   48693287  2004 EDU0152    
 9 UNITED STATES 00000 EDU015205D   48978555  2005 EDU0152    
10 UNITED STATES 00000 EDU015206D   49140702  2006 EDU0152    
# ℹ 31,970 more rows
…
  return(with_state)
}

Testing step 5:

#subsetting to work after step 4
county_practice <- subset(after_step_3, grepl(pattern = ", \\w\\w", after_step_3$area_name))

practice <- step_5(county_practice)
practice #works 

# A tibble: 31,450 × 7
   area_name   state STCOU name       enrollment  year measurement
   <chr>       <chr> <chr> <chr>           <dbl> <dbl> <chr>      
 1 Autauga, AL AL    01001 EDU010197D       8099  1997 EDU0101    
 2 Autauga, AL AL    01001 EDU010198D       8211  1998 EDU0101    
 3 Autauga, AL AL    01001 EDU010199D       8489  1999 EDU0101    
 4 Autauga, AL AL    01001 EDU010200D       8912  2000 EDU0102    
 5 Autauga, AL AL    01001 EDU010201D       8626  2001 EDU0102    
 6 Autauga, AL AL    01001 EDU010202D       8762  2002 EDU0102    
 7 Autauga, AL AL    01001 EDU015203D       9105  2003 EDU0152    
 8 Autauga, AL AL    01001 EDU015204D       9200  2004 EDU0152    
 9 Autauga, AL AL    01001 EDU015205D       9559  2005 EDU0152    
10 Autauga, AL AL    01001 EDU015206D       9652  2006 EDU0152    
# ℹ 31,440 more rows
…
  TRUE ~ "ERROR")) |>
  #adjusting columns to look better
  select(area_name, division, STCOU, everything())
  return(division_data)
}

Testing function step 6:

state <- subset(after_step_3, !(grepl(pattern = ", \\w\\w", after_step_3$area_name)))
practice_step_6 <- step_6_division(state)
practice_step_6

# A tibble: 530 × 7
   area_name     division STCOU name       enrollment  year measurement
   <chr>         <chr>    <chr> <chr>           <dbl> <dbl> <chr>      
 1 United States ERROR    00000 EDU010197D   44534459  1997 EDU0101    
 2 United States ERROR    00000 EDU010198D   46245814  1998 EDU0101    
 3 United States ERROR    00000 EDU010199D   46368903  1999 EDU0101    
 4 United States ERROR    00000 EDU010200D   46818690  2000 EDU0102    
 5 United States ERROR    00000 EDU010201D   47127066  2001 EDU0102    
 6 United States ERROR    00000 EDU010202D   47606570  2002 EDU0102    
 7 United States ERROR    00000 EDU015203D   48506317  2003 EDU0152    
 8 United States ERROR    00000 EDU015204D   48693287  2004 EDU0152    
 9 United States ERROR    00000 EDU015205D   48978555  2005 EDU0152    
10 United States ERROR    00000 EDU015206D   49140702  2006 EDU0152    
# ℹ 520 more rows
…
Rows: 3198 Columns: 42
── Column specification ────────────────────────────────────────────────────────
Delimiter: ","
chr (22): Area_name, STCOU, EDU010197N1, EDU010197N2, EDU010198N1, EDU010198...
dbl (20): EDU010197F, EDU010197D, EDU010198F, EDU010198D, EDU010199F, EDU010...

ℹ Use `spec()` to retrieve the full column specification for this data.
ℹ Specify the column types or set `show_col_types = FALSE` to quiet this message.

data_b_test

$county_data
# A tibble: 31,450 × 7
   area_name   state STCOU name       testing  year measurement
   <chr>       <chr> <chr> <chr>        <dbl> <dbl> <chr>      
 1 Autauga, AL AL    01001 EDU010197D    8099  1997 EDU0101    
 2 Autauga, AL AL    01001 EDU010198D    8211  1998 EDU0101    
 3 Autauga, AL AL    01001 EDU010199D    8489  1999 EDU0101    
 4 Autauga, AL AL    01001 EDU010200D    8912  2000 EDU0102    
 5 Autauga, AL AL    01001 EDU010201D    8626  2001 EDU0102    
 6 Autauga, AL AL    01001 EDU010202D    8762  2002 EDU0102    
 7 Autauga, AL AL    01001 EDU015203D    9105  2003 EDU0152    
 8 Autauga, AL AL    01001 EDU015204D    9200  2004 EDU0152    
 9 Autauga, AL AL    01001 EDU015205D    9559  2005 EDU0152    
10 Autauga, AL AL    01001 EDU015206D    9652  2006 EDU0152    
# ℹ 31,440 more rows

$state_data
# A tibble: 530 × 7
   area_name     division STCOU name        testing  year measurement
   <chr>         <chr>    <chr> <chr>         <dbl> <dbl> <chr>      
 1 United States ERROR    00000 EDU010197D 44534459  1997 EDU0101    
 2 United States ERROR    00000 EDU010198D 46245814  1998 EDU0101    
 3 United States ERROR    00000 EDU010199D 46368903  1999 EDU0101    
 4 United States ERROR    00000 EDU010200D 46818690  2000 EDU0102    
 5 United States ERROR    00000 EDU010201D 47127066  2001 EDU0102    
 6 United States ERROR    00000 EDU010202D 47606570  2002 EDU0102    
 7 United States ERROR    00000 EDU015203D 48506317  2003 EDU0152    
 8 United States ERROR    00000 EDU015204D 48693287  2004 EDU0152    
 9 United States ERROR    00000 EDU015205D 48978555  2005 EDU0152    
10 United States ERROR    00000 EDU015206D 49140702  2006 EDU0152    
# ℹ 520 more rows
…
applying function to both lists of data sets

final_combined_data <- combine(list_data_a,list_data_b)
final_combined_data

$county_data
# A tibble: 62,900 × 7
   area_name   state STCOU name       enrollment  year measurement
   <chr>       <chr> <chr> <chr>           <dbl> <dbl> <chr>      
 1 Autauga, AL AL    01001 EDU010187D       6829  1987 EDU0101    
 2 Autauga, AL AL    01001 EDU010188D       6900  1988 EDU0101    
 3 Autauga, AL AL    01001 EDU010189D       6920  1989 EDU0101    
 4 Autauga, AL AL    01001 EDU010190D       6847  1990 EDU0101    
 5 Autauga, AL AL    01001 EDU010191D       7008  1991 EDU0101    
 6 Autauga, AL AL    01001 EDU010192D       7137  1992 EDU0101    
 7 Autauga, AL AL    01001 EDU010193D       7152  1993 EDU0101    
 8 Autauga, AL AL    01001 EDU010194D       7381  1994 EDU0101    
 9 Autauga, AL AL    01001 EDU010195D       7568  1995 EDU0101    
10 Autauga, AL AL    01001 EDU010196D       7834  1996 EDU0101    
# ℹ 62,890 more rows

$state_data
# A tibble: 1,060 × 7
   area_name     division STCOU name       enrollment  year measurement
   <chr>         <chr>    <chr> <chr>           <dbl> <dbl> <chr>      
 1 United States ERROR    00000 EDU010187D   40024299  1987 EDU0101    
 2 United States ERROR    00000 EDU010188D   39967624  1988 EDU0101    
 3 United States ERROR    00000 EDU010189D   40317775  1989 EDU0101    
 4 United States ERROR    00000 EDU010190D   40737600  1990 EDU0101    
 5 United States ERROR    00000 EDU010191D   41385442  1991 EDU0101    
 6 United States ERROR    00000 EDU010192D   42088151  1992 EDU0101    
 7 United States ERROR    00000 EDU010193D   42724710  1993 EDU0101    
 8 United States ERROR    00000 EDU010194D   43369917  1994 EDU0101    
 9 United States ERROR    00000 EDU010195D   43993459  1995 EDU0101    
10 United States ERROR    00000 EDU010196D   44715737  1996 EDU0101    
# ℹ 1,050 more rows
…
ℹ Use `spec()` to retrieve the full column specification for this data.
ℹ Specify the column types or set `show_col_types = FALSE` to quiet this message.

Run our data combining function to put these into one object (with two data frames):

final_combined_data <- combine(list_data_a,list_data_b)
final_combined_data

$county_data
# A tibble: 62,900 × 7
   area_name   state STCOU name       enrollment  year measurement
   <chr>       <chr> <chr> <chr>           <dbl> <dbl> <chr>      
 1 Autauga, AL AL    01001 EDU010197D       8099  1997 EDU0101    
 2 Autauga, AL AL    01001 EDU010198D       8211  1998 EDU0101    
 3 Autauga, AL AL    01001 EDU010199D       8489  1999 EDU0101    
 4 Autauga, AL AL    01001 EDU010200D       8912  2000 EDU0102    
 5 Autauga, AL AL    01001 EDU010201D       8626  2001 EDU0102    
 6 Autauga, AL AL    01001 EDU010202D       8762  2002 EDU0102    
 7 Autauga, AL AL    01001 EDU015203D       9105  2003 EDU0152    
 8 Autauga, AL AL    01001 EDU015204D       9200  2004 EDU0152    
 9 Autauga, AL AL    01001 EDU015205D       9559  2005 EDU0152    
10 Autauga, AL AL    01001 EDU015206D       9652  2006 EDU0152    
# ℹ 62,890 more rows

$state_data
# A tibble: 1,060 × 7
   area_name     division STCOU name       enrollment  year measurement
   <chr>         <chr>    <chr> <chr>           <dbl> <dbl> <chr>      
 1 United States ERROR    00000 EDU010197D   44534459  1997 EDU0101    
 2 United States ERROR    00000 EDU010198D   46245814  1998 EDU0101    
 3 United States ERROR    00000 EDU010199D   46368903  1999 EDU0101    
 4 United States ERROR    00000 EDU010200D   46818690  2000 EDU0102    
 5 United States ERROR    00000 EDU010201D   47127066  2001 EDU0102    
 6 United States ERROR    00000 EDU010202D   47606570  2002 EDU0102    
 7 United States ERROR    00000 EDU015203D   48506317  2003 EDU0152    
 8 United States ERROR    00000 EDU015204D   48693287  2004 EDU0152    
 9 United States ERROR    00000 EDU015205D   48978555  2005 EDU0152    
10 United States ERROR    00000 EDU015206D   49140702  2006 EDU0152    
# ℹ 1,050 more rows
…
